{
  "current_page": 1,
  "total_pages": 1000,
  "total_items": 32746,
  "photos": [
    {
      "id": 145079163,
      "user_id": 1890505,
      "name": "Moraine Lake",
      "description": "Log Beach with Snow Covered Peaks at Moraine Lake, Canadian Rockies",
      "camera": "X-Pro1",
      "lens": "XF18mmF2 R",
      "focal_length": "18",
      "iso": "200",
      "shutter_speed": "1/125",
      "aperture": "3.6",
      "times_viewed": 7117,
      "rating": 99.7,
      "status": 1,
      "created_at": "2016-03-18T19:13:39-04:00",
      "category": 8,
      "location": null,
      "latitude": null,
      "longitude": null,
      "taken_at": null,
      "hi_res_uploaded": 0,
      "for_sale": false,
      "width": 1400,
      "height": 970,
      "votes_count": 1590,
      "favorites_count": 0,
      "comments_count": 65,
      "nsfw": false,
      "sales_count": 0,
      "for_sale_date": null,
      "highest_rating": 99.7,
      "highest_rating_date": "2016-03-19T17:44:09-04:00",
      "license_type": 0,
      "converted": 27,
      "collections_count": 100,
      "crop_version": 3,
      "privacy": false,
      "profile": true,
      "image_url": "https://drscdn.500px.org/photo/145079163/q%3D50_w%3D140_h%3D140/d18636b7aece5c89284fb9ba5a8a9022?v=3",
      "images": [
        {
          "size": 2,
          "url": "https://drscdn.500px.org/photo/145079163/q%3D50_w%3D140_h%3D140/d18636b7aece5c89284fb9ba5a8a9022?v=3",
          "https_url": "https://drscdn.500px.org/photo/145079163/q%3D50_w%3D140_h%3D140/d18636b7aece5c89284fb9ba5a8a9022?v=3",
          "format": "jpeg"
        }
      ],
      "url": "/photo/145079163/moraine-lake-by-edward-marcinek",
      "positive_votes_count": 1590,
      "converted_bits": 27,
      "watermark": false,
      "image_format": "jpeg",
      "user": {
        "id": 1890505,
        "username": "emarcinek",
        "firstname": "Edward",
        "lastname": "Marcinek",
        "city": "Vancouver",
        "country": "Canada",
        "usertype": 0,
        "fullname": "Edward Marcinek",
        "userpic_url": "https://pacdn.500px.org/1890505/d82fcab8240c5ffffa96c02739cf226f46059d9a/1.jpg?1",
        "userpic_https_url": "https://pacdn.500px.org/1890505/d82fcab8240c5ffffa96c02739cf226f46059d9a/1.jpg?1",
        "cover_url": "https://pacdn.500px.org/1890505/d82fcab8240c5ffffa96c02739cf226f46059d9a/cover_2048.jpg?7",
        "upgrade_status": 1,
        "store_on": true,
        "affection": 99499,
        "avatars": {
          "default": {
            "https": "https://pacdn.500px.org/1890505/d82fcab8240c5ffffa96c02739cf226f46059d9a/1.jpg?1"
          },
          "large": {
            "https": "https://pacdn.500px.org/1890505/d82fcab8240c5ffffa96c02739cf226f46059d9a/2.jpg?1"
          },
          "small": {
            "https": "https://pacdn.500px.org/1890505/d82fcab8240c5ffffa96c02739cf226f46059d9a/3.jpg?1"
          },
          "tiny": {
            "https": "https://pacdn.500px.org/1890505/d82fcab8240c5ffffa96c02739cf226f46059d9a/4.jpg?1"
          }
        },
        "followers_count": 0
      },
      "licensing_requested": false
    },
    {
      "id": 145146855,
      "user_id": 9275377,
      "name": "The Cave",
      "description": "Milky Way inRhodes",
      "camera": "",
      "lens": "",
      "focal_length": "",
      "iso": "",
      "shutter_speed": "",
      "aperture": "",
      "times_viewed": 5436,
      "rating": 99.6,
      "status": 1,
      "created_at": "2016-03-19T09:29:33-04:00",
      "category": 24,
      "location": null,
      "latitude": 36.184441834883,
      "longitude": 28.1236267089844,
      "taken_at": null,
      "hi_res_uploaded": 0,
      "for_sale": false,
      "width": 7360,
      "height": 4912,
      "votes_count": 1236,
      "favorites_count": 0,
      "comments_count": 387,
      "nsfw": false,
      "sales_count": 0,
      "for_sale_date": null,
      "highest_rating": 99.6,
      "highest_rating_date": "2016-03-19T18:12:25-04:00",
      "license_type": 0,
      "converted": 27,
      "collections_count": 159,
      "crop_version": 3,
      "privacy": false,
      "profile": true,
          "image_url": "https://drscdn.500px.org/photo/145146855/q%3D50_w%3D140_h%3D140/0d5af20a7bd08324b597a88155ad6c8d?v=3",
      "images": [
        {
          "size": 2,
                "url": "https://drscdn.500px.org/photo/145146855/q%3D50_w%3D140_h%3D140/0d5af20a7bd08324b597a88155ad6c8d?v=3",
          "https_url": "https://drscdn.500px.org/photo/145146855/q%3D50_w%3D140_h%3D140/0d5af20a7bd08324b597a88155ad6c8d?v=3",
          "format": "jpeg"
        }
      ],
      "url": "/photo/145146855/the-cave-by-panagiotis-laoudikos",
      "positive_votes_count": 1236,
      "converted_bits": 27,
      "watermark": true,
      "image_format": "jpeg",
      "user": {
        "id": 9275377,
        "username": "laoudikos",
        "firstname": "panagiotis",
        "lastname": "laoudikos",
        "city": "RHODES",
        "country": "GREECE",
        "usertype": 0,
        "fullname": "panagiotis laoudikos",
        "userpic_url": "https://pacdn.500px.org/9275377/6cccb5e83b74e79d0e04aa4d8bbad2a7d5d73554/1.jpg?3",
        "userpic_https_url": "https://pacdn.500px.org/9275377/6cccb5e83b74e79d0e04aa4d8bbad2a7d5d73554/1.jpg?3",
        "cover_url": "https://pacdn.500px.org/9275377/6cccb5e83b74e79d0e04aa4d8bbad2a7d5d73554/cover_2048.jpg?3",
        "upgrade_status": 2,
        "store_on": true,
        "affection": 264025,
        "avatars": {
          "default": {
            "https": "https://pacdn.500px.org/9275377/6cccb5e83b74e79d0e04aa4d8bbad2a7d5d73554/1.jpg?3"
          },
          "large": {
            "https": "https://pacdn.500px.org/9275377/6cccb5e83b74e79d0e04aa4d8bbad2a7d5d73554/2.jpg?3"
          },
          "small": {
            "https": "https://pacdn.500px.org/9275377/6cccb5e83b74e79d0e04aa4d8bbad2a7d5d73554/3.jpg?3"
          },
          "tiny": {
            "https": "https://pacdn.500px.org/9275377/6cccb5e83b74e79d0e04aa4d8bbad2a7d5d73554/4.jpg?3"
          }
        },
        "followers_count": 0
      },
      "licensing_requested": false
    },
    {
      "id": 145122021,
      "user_id": 216424,
      "name": "Draconian Flow",
      "description": "... * What the Moon Brings*  ...\nJuarez & Saint Exupery Peaks . Patagonia \n\n© Alexandre Deschaumes 2015",
      "camera": "Canon EOS 5D Mark III",
      "lens": "EF100-400mm f/4.5-5.6L IS II USM",
      "focal_length": "188",
      "iso": "200",
      "shutter_speed": "1/500",
      "aperture": "5",
      "times_viewed": 5178,
      "rating": 99.6,
      "status": 1,
      "created_at": "2016-03-19T05:32:25-04:00",
      "category": 8,
      "location": null,
      "latitude": null,
      "longitude": null,
      "taken_at": "2015-04-12T17:58:59-04:00",
      "hi_res_uploaded": 0,
      "for_sale": false,
      "width": 1500,
      "height": 1034,
      "votes_count": 944,
      "favorites_count": 0,
      "comments_count": 46,
      "nsfw": false,
      "sales_count": 0,
      "for_sale_date": null,
      "highest_rating": 99.6,
      "highest_rating_date": "2016-03-19T17:29:45-04:00",
      "license_type": 0,
      "converted": 27,
      "collections_count": 72,
      "crop_version": 3,
      "privacy": false,
      "profile": true,
      "image_url": "https://drscdn.500px.org/photo/145122021/q%3D50_w%3D140_h%3D140/c170b28e2deb6840f999d65a131b189b?v=3",
      "images": [
        {
          "size": 2,
          "url": "https://drscdn.500px.org/photo/145122021/q%3D50_w%3D140_h%3D140/c170b28e2deb6840f999d65a131b189b?v=3",
          "https_url": "https://drscdn.500px.org/photo/145122021/q%3D50_w%3D140_h%3D140/c170b28e2deb6840f999d65a131b189b?v=3",
          "format": "jpeg"
        }
      ],
      "url": "/photo/145122021/draconian-flow-by-alexandre-deschaumes",
      "positive_votes_count": 944,
      "converted_bits": 27,
      "watermark": false,
      "image_format": "jpeg",
      "user": {
        "id": 216424,
        "username": "alexandredeschaumes",
        "firstname": "Alexandre",
        "lastname": "Deschaumes",
        "city": "",
        "country": "France",
        "usertype": 0,
        "fullname": "Alexandre Deschaumes",
        "userpic_url": "https://pacdn.500px.org/216424/122d9eec809bf124fcf348dcd4f58d292cb238b9/1.jpg?5",
        "userpic_https_url": "https://pacdn.500px.org/216424/122d9eec809bf124fcf348dcd4f58d292cb238b9/1.jpg?5",
        "cover_url": null,
        "upgrade_status": 0,
        "store_on": true,
        "affection": 107328,
        "avatars": {
          "default": {
            "https": "https://pacdn.500px.org/216424/122d9eec809bf124fcf348dcd4f58d292cb238b9/1.jpg?5"
          },
          "large": {
            "https": "https://pacdn.500px.org/216424/122d9eec809bf124fcf348dcd4f58d292cb238b9/2.jpg?5"
          },
          "small": {
            "https": "https://pacdn.500px.org/216424/122d9eec809bf124fcf348dcd4f58d292cb238b9/3.jpg?5"
          },
          "tiny": {
            "https": "https://pacdn.500px.org/216424/122d9eec809bf124fcf348dcd4f58d292cb238b9/4.jpg?5"
          }
        },
        "followers_count": 0
      },
      "licensing_requested": false
    },
    {
      "id": 145119209,
      "user_id": 23896,
      "name": "Portrait",
      "description": "model: Alla Berger\nphoto by: Maxim Maximov \nFB: <a href=\"https://www.facebook.com/the.maksimov\">facebook.com/the.maksimov</a>\nBK: <a href=\"https://vk.com/themaksimov\">vk.com/themaksimov</a>\nFlickr: <a href=\"https://www.flickr.com/photos/52602707@N08/\">flickr.com</a>\nInstagram: <a href=\"https://instagram.com/the.maksimov\">instagram.com/the.maksimov</a>",
      "camera": "NIKON D700",
      "lens": null,
      "focal_length": "85",
      "iso": "2500",
      "shutter_speed": "1/60",
      "aperture": "2",
      "times_viewed": 8917,
      "rating": 99.6,
      "status": 1,
      "created_at": "2016-03-19T05:00:53-04:00",
      "category": 7,
      "location": null,
      "latitude": 55.755826,
      "longitude": 37.6173,
      "taken_at": "2016-03-10T16:59:18-05:00",
      "hi_res_uploaded": 0,
      "for_sale": false,
      "width": 4256,
      "height": 2832,
      "votes_count": 1535,
      "favorites_count": 0,
      "comments_count": 87,
      "nsfw": false,
      "sales_count": 0,
      "for_sale_date": null,
      "highest_rating": 99.6,
      "highest_rating_date": "2016-03-19T16:42:05-04:00",
      "license_type": 0,
      "converted": 27,
      "collections_count": 202,
      "crop_version": 3,
      "privacy": false,
      "profile": true,
      "image_url": "https://drscdn.500px.org/photo/145119209/q%3D50_w%3D140_h%3D140/097df33c6073624afc70137c66125842?v=3",
      "images": [
        {
          "size": 2,
          "url": "https://drscdn.500px.org/photo/145119209/q%3D50_w%3D140_h%3D140/097df33c6073624afc70137c66125842?v=3",
          "https_url": "https://drscdn.500px.org/photo/145119209/q%3D50_w%3D140_h%3D140/097df33c6073624afc70137c66125842?v=3",
          "format": "jpeg"
        }
      ],
      "url": "/photo/145119209/portrait-by-maxim-maximov",
      "positive_votes_count": 1535,
      "converted_bits": 27,
      "watermark": false,
      "image_format": "jpeg",
      "user": {
        "id": 23896,
        "username": "The-Maksimov",
        "firstname": "Maxim",
        "lastname": "Maximov",
        "city": "Moscow",
        "country": "Rassia",
        "usertype": 0,
        "fullname": "Maxim Maximov",
        "userpic_url": "https://pacdn.500px.org/23896/5369dd05bbef2d9da56717dd87b240d0380fb2fb/1.jpg?5",
        "userpic_https_url": "https://pacdn.500px.org/23896/5369dd05bbef2d9da56717dd87b240d0380fb2fb/1.jpg?5",
        "cover_url": "https://pacdn.500px.org/23896/5369dd05bbef2d9da56717dd87b240d0380fb2fb/cover_2048.jpg?23",
        "upgrade_status": 0,
        "store_on": true,
        "affection": 567077,
        "avatars": {
          "default": {
            "https": "https://pacdn.500px.org/23896/5369dd05bbef2d9da56717dd87b240d0380fb2fb/1.jpg?5"
          },
          "large": {
            "https": "https://pacdn.500px.org/23896/5369dd05bbef2d9da56717dd87b240d0380fb2fb/2.jpg?5"
          },
          "small": {
            "https": "https://pacdn.500px.org/23896/5369dd05bbef2d9da56717dd87b240d0380fb2fb/3.jpg?5"
          },
          "tiny": {
            "https": "https://pacdn.500px.org/23896/5369dd05bbef2d9da56717dd87b240d0380fb2fb/4.jpg?5"
          }
        },
        "followers_count": 0
      },
      "licensing_requested": false
    },
    {
      "id": 145115565,
      "user_id": 479174,
      "name": "Mystical Consciousness",
      "description": "\"Consciència Mística\"",
      "camera": null,
      "lens": null,
      "focal_length": null,
      "iso": null,
      "shutter_speed": null,
      "aperture": null,
      "times_viewed": 5166,
      "rating": 99.6,
      "status": 1,
      "created_at": "2016-03-19T04:21:31-04:00",
      "category": 24,
      "location": null,
      "latitude": null,
      "longitude": null,
      "taken_at": "2015-03-03T08:28:26-05:00",
      "hi_res_uploaded": 0,
      "for_sale": false,
      "width": 3400,
      "height": 3116,
      "votes_count": 1139,
      "favorites_count": 0,
      "comments_count": 88,
      "nsfw": false,
      "sales_count": 0,
      "for_sale_date": null,
      "highest_rating": 99.6,
      "highest_rating_date": "2016-03-19T17:29:50-04:00",
      "license_type": 0,
      "converted": 27,
      "collections_count": 102,
      "crop_version": 3,
      "privacy": false,
      "profile": true,
      "image_url": "https://drscdn.500px.org/photo/145115565/q%3D50_w%3D140_h%3D140/f8a80ba897d2c6a9c40c9ddaf03e207c?v=3",
      "images": [
        {
          "size": 2,
          "url": "https://drscdn.500px.org/photo/145115565/q%3D50_w%3D140_h%3D140/f8a80ba897d2c6a9c40c9ddaf03e207c?v=3",
          "https_url": "https://drscdn.500px.org/photo/145115565/q%3D50_w%3D140_h%3D140/f8a80ba897d2c6a9c40c9ddaf03e207c?v=3",
          "format": "jpeg"
        }
      ],
      "url": "/photo/145115565/mystical-consciousness-by-josep-sumalla",
      "positive_votes_count": 1139,
      "converted_bits": 27,
      "watermark": false,
      "image_format": "jpeg",
      "user": {
        "id": 479174,
        "username": "DigitalArtPhotography",
        "firstname": "Josep",
        "lastname": "Sumalla",
        "city": "Alacant",
        "country": "España",
        "usertype": 0,
        "fullname": "Josep Sumalla",
        "userpic_url": "https://pacdn.500px.org/479174/86fdbaaaeb01bb98fb27abfdfc1f44a0135d3cac/1.jpg?61",
        "userpic_https_url": "https://pacdn.500px.org/479174/86fdbaaaeb01bb98fb27abfdfc1f44a0135d3cac/1.jpg?61",
        "cover_url": "https://pacdn.500px.org/479174/86fdbaaaeb01bb98fb27abfdfc1f44a0135d3cac/cover_2048.jpg?88",
        "upgrade_status": 1,
        "store_on": true,
        "affection": 491167,
        "avatars": {
          "default": {
            "https": "https://pacdn.500px.org/479174/86fdbaaaeb01bb98fb27abfdfc1f44a0135d3cac/1.jpg?61"
          },
          "large": {
            "https": "https://pacdn.500px.org/479174/86fdbaaaeb01bb98fb27abfdfc1f44a0135d3cac/2.jpg?61"
          },
          "small": {
            "https": "https://pacdn.500px.org/479174/86fdbaaaeb01bb98fb27abfdfc1f44a0135d3cac/3.jpg?61"
          },
          "tiny": {
            "https": "https://pacdn.500px.org/479174/86fdbaaaeb01bb98fb27abfdfc1f44a0135d3cac/4.jpg?61"
          }
        },
        "followers_count": 0
      },
      "licensing_requested": false
    },
    {
      "id": 145114471,
      "user_id": 4056592,
      "name": "Enough for me",
      "description": null,
      "camera": "Canon EOS 600D",
      "lens": "EF-S18-55mm f/3.5-5.6 IS II",
      "focal_length": "27",
      "iso": "320",
      "shutter_speed": "1/40",
      "aperture": "4",
      "times_viewed": 6006,
      "rating": 99.6,
      "status": 1,
      "created_at": "2016-03-19T04:07:28-04:00",
      "category": 24,
      "location": null,
      "latitude": null,
      "longitude": null,
      "taken_at": "2013-08-11T07:47:08-04:00",
      "hi_res_uploaded": 0,
      "for_sale": false,
      "width": 5184,
      "height": 3456,
      "votes_count": 1280,
      "favorites_count": 0,
      "comments_count": 82,
      "nsfw": false,
      "sales_count": 0,
      "for_sale_date": null,
      "highest_rating": 99.6,
      "highest_rating_date": "2016-03-19T18:03:05-04:00",
      "license_type": 0,
      "converted": 27,
      "collections_count": 86,
      "crop_version": 3,
      "privacy": false,
      "profile": true,
      "image_url": "https://drscdn.500px.org/photo/145114471/q%3D50_w%3D140_h%3D140/eb9a37b25b0ed8efc3e129cce4ba2b0d?v=3",
      "images": [
        {
          "size": 2,
          "url": "https://drscdn.500px.org/photo/145114471/q%3D50_w%3D140_h%3D140/eb9a37b25b0ed8efc3e129cce4ba2b0d?v=3",
          "https_url": "https://drscdn.500px.org/photo/145114471/q%3D50_w%3D140_h%3D140/eb9a37b25b0ed8efc3e129cce4ba2b0d?v=3",
          "format": "jpeg"
        }
      ],
      "url": "/photo/145114471/enough-for-me-by-id-s",
      "positive_votes_count": 1280,
      "converted_bits": 27,
      "watermark": false,
      "image_format": "jpeg",
      "user": {
        "id": 4056592,
        "username": "idrusarsyad",
        "firstname": "iD's",
        "lastname": "",
        "city": "Makassar",
        "country": "Indonesia",
        "usertype": 0,
        "fullname": "iD's",
        "userpic_url": "https://pacdn.500px.org/4056592/e76c3b2b57e9690fe85a489aa622bdb3361fe77b/1.jpg?7",
        "userpic_https_url": "https://pacdn.500px.org/4056592/e76c3b2b57e9690fe85a489aa622bdb3361fe77b/1.jpg?7",
        "cover_url": "https://pacdn.500px.org/4056592/e76c3b2b57e9690fe85a489aa622bdb3361fe77b/cover_2048.jpg?2",
        "upgrade_status": 0,
        "store_on": true,
        "affection": 469023,
        "avatars": {
          "default": {
            "https": "https://pacdn.500px.org/4056592/e76c3b2b57e9690fe85a489aa622bdb3361fe77b/1.jpg?7"
          },
          "large": {
            "https": "https://pacdn.500px.org/4056592/e76c3b2b57e9690fe85a489aa622bdb3361fe77b/2.jpg?7"
          },
          "small": {
            "https": "https://pacdn.500px.org/4056592/e76c3b2b57e9690fe85a489aa622bdb3361fe77b/3.jpg?7"
          },
          "tiny": {
            "https": "https://pacdn.500px.org/4056592/e76c3b2b57e9690fe85a489aa622bdb3361fe77b/4.jpg?7"
          }
        },
        "followers_count": 0
      },
      "licensing_requested": false
    },
    {
      "id": 145099157,
      "user_id": 2170855,
      "name": "рассвет на Байкале...",
      "description": "Байкал",
      "camera": null,
      "lens": null,
      "focal_length": null,
      "iso": null,
      "shutter_speed": null,
      "aperture": null,
      "times_viewed": 5742,
      "rating": 99.6,
      "status": 1,
      "created_at": "2016-03-18T23:52:36-04:00",
      "category": 8,
      "location": null,
      "latitude": 53.1606334875759,
      "longitude": 107.37071916461,
      "taken_at": "2016-03-19T05:46:57-04:00",
      "hi_res_uploaded": 0,
      "for_sale": false,
      "width": 5911,
      "height": 4923,
      "votes_count": 1227,
      "favorites_count": 0,
      "comments_count": 57,
      "nsfw": false,
      "sales_count": 0,
      "for_sale_date": null,
      "highest_rating": 99.6,
      "highest_rating_date": "2016-03-19T17:18:13-04:00",
      "license_type": 0,
      "converted": 27,
      "collections_count": 79,
      "crop_version": 3,
      "privacy": false,
      "profile": true,
      "image_url": "https://drscdn.500px.org/photo/145099157/q%3D50_w%3D140_h%3D140/de001722369324e28c4ff460b3ba268c?v=3",
      "images": [
        {
          "size": 2,
          "url": "https://drscdn.500px.org/photo/145099157/q%3D50_w%3D140_h%3D140/de001722369324e28c4ff460b3ba268c?v=3",
          "https_url": "https://drscdn.500px.org/photo/145099157/q%3D50_w%3D140_h%3D140/de001722369324e28c4ff460b3ba268c?v=3",
          "format": "jpeg"
        }
      ],
      "url": "/photo/145099157/%D1%80%D0%B0%D1%81%D1%81%D0%B2%D0%B5%D1%82-%D0%BD%D0%B0-%D0%91%D0%B0%D0%B9%D0%BA%D0%B0%D0%BB%D0%B5-by-ed-gordeev",
      "positive_votes_count": 1227,
      "converted_bits": 27,
      "watermark": false,
      "image_format": "jpeg",
      "user": {
        "id": 2170855,
        "username": "egordeev",
        "firstname": "Ed",
        "lastname": "Gordeev",
        "city": "St. Petersburg",
        "country": "Russia",
        "usertype": 0,
        "fullname": "Ed Gordeev",
        "userpic_url": "https://pacdn.500px.org/2170855/23af26da21fc5cd10eeae7c05accb14f1a641ecb/1.jpg?3",
        "userpic_https_url": "https://pacdn.500px.org/2170855/23af26da21fc5cd10eeae7c05accb14f1a641ecb/1.jpg?3",
        "cover_url": "https://pacdn.500px.org/2170855/23af26da21fc5cd10eeae7c05accb14f1a641ecb/cover_2048.jpg?12",
        "upgrade_status": 0,
        "store_on": true,
        "affection": 212907,
        "avatars": {
          "default": {
            "https": "https://pacdn.500px.org/2170855/23af26da21fc5cd10eeae7c05accb14f1a641ecb/1.jpg?3"
          },
          "large": {
            "https": "https://pacdn.500px.org/2170855/23af26da21fc5cd10eeae7c05accb14f1a641ecb/2.jpg?3"
          },
          "small": {
            "https": "https://pacdn.500px.org/2170855/23af26da21fc5cd10eeae7c05accb14f1a641ecb/3.jpg?3"
          },
          "tiny": {
            "https": "https://pacdn.500px.org/2170855/23af26da21fc5cd10eeae7c05accb14f1a641ecb/4.jpg?3"
          }
        },
        "followers_count": 0
      },
      "licensing_requested": false
    },
    {
      "id": 145120247,
      "user_id": 3865288,
      "name": "~FEEL~",
      "description": "If you like this fantasywork please Like ✔ Comment ✔ Share ✔ Follow ✔\nI recommend strongly to view it on black background\nPs,,,I have a fantastic group \"500px photo show off\" where you can promote great works,,,you are welcome to join : https://www.facebook.com/groups/536656613091053/\nCheers",
      "camera": null,
      "lens": null,
      "focal_length": null,
      "iso": null,
      "shutter_speed": null,
      "aperture": null,
      "times_viewed": 6246,
      "rating": 99.5,
      "status": 1,
      "created_at": "2016-03-19T05:11:54-04:00",
      "category": 24,
      "location": null,
      "latitude": 57.4689687076657,
      "longitude": 10.5331629188731,
      "taken_at": null,
      "hi_res_uploaded": 0,
      "for_sale": false,
      "width": 2048,
      "height": 851,
      "votes_count": 1098,
      "favorites_count": 0,
      "comments_count": 100,
      "nsfw": false,
      "sales_count": 0,
      "for_sale_date": null,
      "highest_rating": 99.5,
      "highest_rating_date": "2016-03-19T16:57:56-04:00",
      "license_type": 0,
      "converted": 27,
      "collections_count": 78,
      "crop_version": 3,
      "privacy": false,
      "profile": true,
      "image_url": "https://drscdn.500px.org/photo/145120247/q%3D50_w%3D140_h%3D140/d97eb6b0f70c0e79e68bf4ea23d713a7?v=3",
      "images": [
        {
          "size": 2,
          "url": "https://drscdn.500px.org/photo/145120247/q%3D50_w%3D140_h%3D140/d97eb6b0f70c0e79e68bf4ea23d713a7?v=3",
          "https_url": "https://drscdn.500px.org/photo/145120247/q%3D50_w%3D140_h%3D140/d97eb6b0f70c0e79e68bf4ea23d713a7?v=3",
          "format": "jpeg"
        }
      ],
      "url": "/photo/145120247/-feel-by-christian-wig",
      "positive_votes_count": 1098,
      "converted_bits": 27,
      "watermark": true,
      "image_format": "jpeg",
      "user": {
        "id": 3865288,
        "username": "wigH",
        "firstname": "Christian",
        "lastname": "Wig",
        "city": "Frederikshavn",
        "country": "Denmark",
        "usertype": 0,
        "fullname": "Christian Wig",
        "userpic_url": "https://pacdn.500px.org/3865288/42beab4c9a0fc0e9241760e6bc169b7065d9937a/1.jpg?4",
        "userpic_https_url": "https://pacdn.500px.org/3865288/42beab4c9a0fc0e9241760e6bc169b7065d9937a/1.jpg?4",
        "cover_url": "https://pacdn.500px.org/3865288/42beab4c9a0fc0e9241760e6bc169b7065d9937a/cover_2048.jpg?54",
        "upgrade_status": 1,
        "store_on": true,
        "affection": 475598,
        "avatars": {
          "default": {
            "https": "https://pacdn.500px.org/3865288/42beab4c9a0fc0e9241760e6bc169b7065d9937a/1.jpg?4"
          },
          "large": {
            "https": "https://pacdn.500px.org/3865288/42beab4c9a0fc0e9241760e6bc169b7065d9937a/2.jpg?4"
          },
          "small": {
            "https": "https://pacdn.500px.org/3865288/42beab4c9a0fc0e9241760e6bc169b7065d9937a/3.jpg?4"
          },
          "tiny": {
            "https": "https://pacdn.500px.org/3865288/42beab4c9a0fc0e9241760e6bc169b7065d9937a/4.jpg?4"
          }
        },
        "followers_count": 0
      },
      "licensing_requested": false
    },
    {
      "id": 145117475,
      "user_id": 1765425,
      "name": "Smoke Velvety",
      "description": "My favorite geothermal place with its winter coat ;)\n\nFacebook Page: https://www.facebook.com/AlbanHenderyckxPhotography\n\nCopyright © Alban Henderyckx / All rights reserved.\n\nPS: Only one exposure (one shot) edited in LR6.",
      "camera": "",
      "lens": "",
      "focal_length": "",
      "iso": "",
      "shutter_speed": "",
      "aperture": "",
      "times_viewed": 5340,
      "rating": 99.5,
      "status": 1,
      "created_at": "2016-03-19T04:42:46-04:00",
      "category": 8,
      "location": null,
      "latitude": 64.3921898054967,
      "longitude": -19.3359375,
      "taken_at": "2016-02-24T07:12:21-05:00",
      "hi_res_uploaded": 0,
      "for_sale": false,
      "width": 1920,
      "height": 1094,
      "votes_count": 958,
      "favorites_count": 0,
      "comments_count": 54,
      "nsfw": false,
      "sales_count": 0,
      "for_sale_date": null,
      "highest_rating": 99.5,
      "highest_rating_date": "2016-03-19T17:09:31-04:00",
      "license_type": 0,
      "converted": 27,
      "collections_count": 68,
      "crop_version": 3,
      "privacy": false,
      "profile": true,
      "image_url": "https://drscdn.500px.org/photo/145117475/q%3D50_w%3D140_h%3D140/929dff7b1fde69cefbc9b7915a14fe24?v=3",
      "images": [
        {
          "size": 2,
          "url": "https://drscdn.500px.org/photo/145117475/q%3D50_w%3D140_h%3D140/929dff7b1fde69cefbc9b7915a14fe24?v=3",
          "https_url": "https://drscdn.500px.org/photo/145117475/q%3D50_w%3D140_h%3D140/929dff7b1fde69cefbc9b7915a14fe24?v=3",
          "format": "jpeg"
        }
      ],
      "url": "/photo/145117475/smoke-velvety-by-alban-henderyckx",
      "positive_votes_count": 958,
      "converted_bits": 27,
      "watermark": false,
      "image_format": "jpeg",
      "user": {
        "id": 1765425,
        "username": "albanhenderyckxphotography",
        "firstname": "Alban",
        "lastname": "Henderyckx",
        "city": "Reykjavik",
        "country": "Iceland",
        "usertype": 0,
        "fullname": "Alban Henderyckx",
        "userpic_url": "https://pacdn.500px.org/1765425/b4f6265d93f4d5b0191fdf5c8cb625edb713a5b7/1.jpg?16",
        "userpic_https_url": "https://pacdn.500px.org/1765425/b4f6265d93f4d5b0191fdf5c8cb625edb713a5b7/1.jpg?16",
        "cover_url": "https://pacdn.500px.org/1765425/b4f6265d93f4d5b0191fdf5c8cb625edb713a5b7/cover_2048.jpg?5",
        "upgrade_status": 0,
        "store_on": false,
        "affection": 222226,
        "avatars": {
          "default": {
            "https": "https://pacdn.500px.org/1765425/b4f6265d93f4d5b0191fdf5c8cb625edb713a5b7/1.jpg?16"
          },
          "large": {
            "https": "https://pacdn.500px.org/1765425/b4f6265d93f4d5b0191fdf5c8cb625edb713a5b7/2.jpg?16"
          },
          "small": {
            "https": "https://pacdn.500px.org/1765425/b4f6265d93f4d5b0191fdf5c8cb625edb713a5b7/3.jpg?16"
          },
          "tiny": {
            "https": "https://pacdn.500px.org/1765425/b4f6265d93f4d5b0191fdf5c8cb625edb713a5b7/4.jpg?16"
          }
        },
        "followers_count": 0
      },
      "licensing_requested": false
    },
    {
      "id": 145107409,
      "user_id": 570437,
      "name": "The Fan",
      "description": "This is what I was after while in Hawaii. The \"fan\" constructed by waves crashing into each other. At the sunset time the outer  part of the wave gets highlighted by the sunsetting sun.\nThe effect is mesmerizing. I took about 1000 shots to get this one.",
      "camera": null,
      "lens": null,
      "focal_length": null,
      "iso": null,
      "shutter_speed": null,
      "aperture": null,
      "times_viewed": 4571,
      "rating": 99.5,
      "status": 1,
      "created_at": "2016-03-19T02:33:53-04:00",
      "category": 8,
      "location": null,
      "latitude": 22.0964396,
      "longitude": -159.5261238,
      "taken_at": null,
      "hi_res_uploaded": 0,
      "for_sale": false,
      "width": 1800,
      "height": 1201,
      "votes_count": 883,
      "favorites_count": 0,
      "comments_count": 41,
      "nsfw": false,
      "sales_count": 0,
      "for_sale_date": null,
      "highest_rating": 99.5,
      "highest_rating_date": "2016-03-19T18:17:06-04:00",
      "license_type": 0,
      "converted": 27,
      "collections_count": 100,
      "crop_version": 3,
      "privacy": false,
      "profile": true,
      "image_url": "https://drscdn.500px.org/photo/145107409/q%3D50_w%3D140_h%3D140/bcb2074460d94eba27bdff7e1cc988da?v=3",
      "images": [
        {
          "size": 2,
          "url": "https://drscdn.500px.org/photo/145107409/q%3D50_w%3D140_h%3D140/bcb2074460d94eba27bdff7e1cc988da?v=3",
          "https_url": "https://drscdn.500px.org/photo/145107409/q%3D50_w%3D140_h%3D140/bcb2074460d94eba27bdff7e1cc988da?v=3",
          "format": "jpeg"
        }
      ],
      "url": "/photo/145107409/the-fan-by-greg-boratyn",
      "positive_votes_count": 883,
      "converted_bits": 27,
      "watermark": false,
      "image_format": "jpeg",
      "user": {
        "id": 570437,
        "username": "GreggB",
        "firstname": "Greg",
        "lastname": "Boratyn",
        "city": "Orange County",
        "country": "USA",
        "usertype": 0,
        "fullname": "Greg Boratyn",
        "userpic_url": "https://pacdn.500px.org/570437/3faf287fa7140acaec1cdf22501ce0cd0f7320e9/1.jpg?4",
        "userpic_https_url": "https://pacdn.500px.org/570437/3faf287fa7140acaec1cdf22501ce0cd0f7320e9/1.jpg?4",
        "cover_url": "https://pacdn.500px.org/570437/3faf287fa7140acaec1cdf22501ce0cd0f7320e9/cover_2048.jpg?48",
        "upgrade_status": 0,
        "store_on": true,
        "affection": 251268,
        "avatars": {
          "default": {
            "https": "https://pacdn.500px.org/570437/3faf287fa7140acaec1cdf22501ce0cd0f7320e9/1.jpg?4"
          },
          "large": {
            "https": "https://pacdn.500px.org/570437/3faf287fa7140acaec1cdf22501ce0cd0f7320e9/2.jpg?4"
          },
          "small": {
            "https": "https://pacdn.500px.org/570437/3faf287fa7140acaec1cdf22501ce0cd0f7320e9/3.jpg?4"
          },
          "tiny": {
            "https": "https://pacdn.500px.org/570437/3faf287fa7140acaec1cdf22501ce0cd0f7320e9/4.jpg?4"
          }
        },
        "followers_count": 0
      },
      "licensing_requested": false
    },
    {
      "id": 145078969,
      "user_id": 15908165,
      "name": "LENA",
      "description": null,
      "camera": "Canon EOS 5D Mark II",
      "lens": "EF85mm f/1.8 USM",
      "focal_length": "85",
      "iso": "125",
      "shutter_speed": "1/400",
      "aperture": "2.5",
      "times_viewed": 5125,
      "rating": 99.5,
      "status": 1,
      "created_at": "2016-03-18T19:11:30-04:00",
      "category": 14,
      "location": null,
      "latitude": null,
      "longitude": null,
      "taken_at": "2016-03-18T18:24:05-04:00",
      "hi_res_uploaded": 0,
      "for_sale": false,
      "width": 5616,
      "height": 3744,
      "votes_count": 843,
      "favorites_count": 0,
      "comments_count": 21,
      "nsfw": false,
      "sales_count": 0,
      "for_sale_date": null,
      "highest_rating": 99.5,
      "highest_rating_date": "2016-03-19T18:03:55-04:00",
      "license_type": 0,
      "converted": 27,
      "collections_count": 40,
      "crop_version": 3,
      "privacy": false,
      "profile": true,
      "image_url": "https://drscdn.500px.org/photo/145078969/q%3D50_w%3D140_h%3D140/9fa6d1794617c83106db90f61b6c4f5d?v=3",
      "images": [
        {
          "size": 2,
          "url": "https://drscdn.500px.org/photo/145078969/q%3D50_w%3D140_h%3D140/9fa6d1794617c83106db90f61b6c4f5d?v=3",
          "https_url": "https://drscdn.500px.org/photo/145078969/q%3D50_w%3D140_h%3D140/9fa6d1794617c83106db90f61b6c4f5d?v=3",
          "format": "jpeg"
        }
      ],
      "url": "/photo/145078969/lena-by-veronika-bures",
      "positive_votes_count": 843,
      "converted_bits": 27,
      "watermark": false,
      "image_format": "jpeg",
      "user": {
        "id": 15908165,
        "username": "VroniSommerregen",
        "firstname": "Veronika",
        "lastname": "Bures",
        "city": "Munich, Germany",
        "country": "",
        "usertype": 0,
        "fullname": "Veronika Bures",
        "userpic_url": "https://graph.facebook.com/10153919089651310/picture?height=100&width=100",
        "userpic_https_url": "https://graph.facebook.com/10153919089651310/picture?height=100&width=100",
        "cover_url": "https://pacdn.500px.org/15908165/84345d0690bc72be19a234fb196d6e475f95de13/cover_2048.jpg?5",
        "upgrade_status": 0,
        "store_on": false,
        "affection": 18677,
        "avatars": {
          "default": {
            "https": "https://graph.facebook.com/10153919089651310/picture?height=100&width=100"
          },
          "large": {
            "https": "https://graph.facebook.com/10153919089651310/picture?height=100&width=100"
          },
          "small": {
            "https": "https://graph.facebook.com/10153919089651310/picture?height=100&width=100"
          },
          "tiny": {
            "https": "https://graph.facebook.com/10153919089651310/picture?height=100&width=100"
          }
        },
        "followers_count": 0
      },
      "licensing_requested": false
    },
    {
      "id": 145164981,
      "user_id": 777395,
      "name": "Anna",
      "description": "Personal online lessons and video tutorials. I will share everything I know about natural light, composition, retouching and colors. I found my own way in retouching, you will be surprised how simple it is. All you need to know is Photoshop basics (you can be an absolute beginner). I dont use frequency separation, masks and any complicated methods. It's really simple and very fast. Usually, it's only 10-30 minutes of work with one photo. And the result is good enough for covers! \n\nWrite me by email for personal online lessons - outofsight@mail.ru",
      "camera": "Canon EOS 6D",
      "lens": "EF85mm f/1.2L II USM",
      "focal_length": "85",
      "iso": "2500",
      "shutter_speed": "1/125",
      "aperture": "2",
      "times_viewed": 6302,
      "rating": 99.4,
      "status": 1,
      "created_at": "2016-03-19T11:54:53-04:00",
      "category": 14,
      "location": null,
      "latitude": 56.8389261,
      "longitude": 60.6057025,
      "taken_at": "2015-10-25T17:41:45-04:00",
      "hi_res_uploaded": 0,
      "for_sale": false,
      "width": 859,
      "height": 1089,
      "votes_count": 1146,
      "favorites_count": 0,
      "comments_count": 25,
      "nsfw": false,
      "sales_count": 0,
      "for_sale_date": null,
      "highest_rating": 99.4,
      "highest_rating_date": "2016-03-19T18:08:29-04:00",
      "license_type": 0,
      "converted": 27,
      "collections_count": 169,
      "crop_version": 3,
      "privacy": false,
      "profile": true,
      "image_url": "https://drscdn.500px.org/photo/145164981/q%3D50_w%3D140_h%3D140/f50235a677ac25edb739184bd58b68c1?v=3",
      "images": [
        {
          "size": 2,
          "url": "https://drscdn.500px.org/photo/145164981/q%3D50_w%3D140_h%3D140/f50235a677ac25edb739184bd58b68c1?v=3",
          "https_url": "https://drscdn.500px.org/photo/145164981/q%3D50_w%3D140_h%3D140/f50235a677ac25edb739184bd58b68c1?v=3",
          "format": "jpeg"
        }
      ],
      "url": "/photo/145164981/anna-by-sean-archer",
      "positive_votes_count": 1146,
      "converted_bits": 27,
      "watermark": false,
      "image_format": "jpeg",
      "user": {
        "id": 777395,
        "username": "SeanArcher",
        "firstname": "Sean",
        "lastname": "Archer",
        "city": "Yekaterinburg",
        "country": "Russia",
        "usertype": 0,
        "fullname": "Sean Archer",
        "userpic_url": "https://pacdn.500px.org/777395/fcc4a2ab5f58bb2da689ed70763e23cd70eaa6a6/1.jpg?59",
        "userpic_https_url": "https://pacdn.500px.org/777395/fcc4a2ab5f58bb2da689ed70763e23cd70eaa6a6/1.jpg?59",
        "cover_url": "https://pacdn.500px.org/777395/fcc4a2ab5f58bb2da689ed70763e23cd70eaa6a6/cover_2048.jpg?8",
        "upgrade_status": 0,
        "store_on": true,
        "affection": 1717626,
        "avatars": {
          "default": {
            "https": "https://pacdn.500px.org/777395/fcc4a2ab5f58bb2da689ed70763e23cd70eaa6a6/1.jpg?59"
          },
          "large": {
            "https": "https://pacdn.500px.org/777395/fcc4a2ab5f58bb2da689ed70763e23cd70eaa6a6/2.jpg?59"
          },
          "small": {
            "https": "https://pacdn.500px.org/777395/fcc4a2ab5f58bb2da689ed70763e23cd70eaa6a6/3.jpg?59"
          },
          "tiny": {
            "https": "https://pacdn.500px.org/777395/fcc4a2ab5f58bb2da689ed70763e23cd70eaa6a6/4.jpg?59"
          }
        },
        "followers_count": 0
      },
      "licensing_requested": false
    },
    {
      "id": 145102491,
      "user_id": 1161015,
      "name": "Sea of Gold",
      "description": "Thank you so much for viewing my images!\nTo follow me on Facebook, please click here: <a href=\"http://www.facebook.com/ljhollowayphotography\">Facebook Page</a>\nYou can visit my website by clicking here: <a href=\"http://www.ljhollowayphotography.com\">Website</a> \nFREE download to follow me on <a href=\"https://itunes.apple.com/us/app/lisa-holloway/id868243693?ls=1&mt=8\">iTunes</a> or <a href=\"https://play.google.com/store/apps/details?id=com.thefolioapp.thefolioapp596\">Android</a>\nYou can also follow me HERE: <a href=\"http://www.twitter.com/LisaJHolloway\">Twitter</a> | <a href=\"http://www.instagram.com/desert_rose76\">Instagram</a> | <a href=\"https://plus.google.com/b/111408478066955407878/+Ljhollowayphotography/posts?cfem=1\">Google+</a>\nPlease <a href=\"mailto:ljhollowayphotography@gmail.com\">E-mail me</a> with any questions!  Have a great day!",
      "camera": "Canon EOS 5D Mark III",
      "lens": "EF200mm f/2L IS USM",
      "focal_length": "200",
      "iso": "1600",
      "shutter_speed": "1/250",
      "aperture": "2",
      "times_viewed": 8513,
      "rating": 99.4,
      "status": 1,
      "created_at": "2016-03-19T01:00:34-04:00",
      "category": 7,
      "location": null,
      "latitude": 36.1689225362274,
      "longitude": -116.262817382812,
      "taken_at": "2016-03-12T06:48:35-05:00",
      "hi_res_uploaded": 0,
      "for_sale": false,
      "width": 1500,
      "height": 1071,
      "votes_count": 1174,
      "favorites_count": 0,
      "comments_count": 76,
      "nsfw": false,
      "sales_count": 0,
      "for_sale_date": null,
      "highest_rating": 99.4,
      "highest_rating_date": "2016-03-19T16:59:13-04:00",
      "license_type": 0,
      "converted": 27,
      "collections_count": 75,
      "crop_version": 3,
      "privacy": false,
      "profile": true,
      "image_url": "https://drscdn.500px.org/photo/145102491/q%3D50_w%3D140_h%3D140/1704933e9f4352a4cc5ff4685dcd316e?v=3",
      "images": [
        {
          "size": 2,
          "url": "https://drscdn.500px.org/photo/145102491/q%3D50_w%3D140_h%3D140/1704933e9f4352a4cc5ff4685dcd316e?v=3",
          "https_url": "https://drscdn.500px.org/photo/145102491/q%3D50_w%3D140_h%3D140/1704933e9f4352a4cc5ff4685dcd316e?v=3",
          "format": "jpeg"
        }
      ],
      "url": "/photo/145102491/sea-of-gold-by-lisa-holloway",
      "positive_votes_count": 1174,
      "converted_bits": 27,
      "watermark": false,
      "image_format": "jpeg",
      "user": {
        "id": 1161015,
        "username": "LisaHolloway",
        "firstname": "Lisa",
        "lastname": "Holloway",
        "city": "Kingman, Arizona",
        "country": "United States",
        "usertype": 0,
        "fullname": "Lisa Holloway",
        "userpic_url": "https://pacdn.500px.org/1161015/c433bcb71daed7aea59154f4a179f3f7ab795c81/1.jpg?15",
        "userpic_https_url": "https://pacdn.500px.org/1161015/c433bcb71daed7aea59154f4a179f3f7ab795c81/1.jpg?15",
        "cover_url": "https://pacdn.500px.org/1161015/c433bcb71daed7aea59154f4a179f3f7ab795c81/cover_2048.jpg?43",
        "upgrade_status": 2,
        "store_on": true,
        "affection": 743383,
        "avatars": {
          "default": {
            "https": "https://pacdn.500px.org/1161015/c433bcb71daed7aea59154f4a179f3f7ab795c81/1.jpg?15"
          },
          "large": {
            "https": "https://pacdn.500px.org/1161015/c433bcb71daed7aea59154f4a179f3f7ab795c81/2.jpg?15"
          },
          "small": {
            "https": "https://pacdn.500px.org/1161015/c433bcb71daed7aea59154f4a179f3f7ab795c81/3.jpg?15"
          },
          "tiny": {
            "https": "https://pacdn.500px.org/1161015/c433bcb71daed7aea59154f4a179f3f7ab795c81/4.jpg?15"
          }
        },
        "followers_count": 0
      },
      "licensing_requested": false
    },
    {
      "id": 145090263,
      "user_id": 69708,
      "name": "Allah Power! From our 30-day family trip...",
      "description": "I'll be posting a few photos over the past few months…this one is from Abu Dhabi. I took the family on a 30 day trip across 5 countries. To see more and watch new bloggy videos, go to http://www.stuckincustoms.com/category/travel/30-days-2016/",
      "camera": "Hasselblad H5D",
      "lens": "HCD 28",
      "focal_length": "28",
      "iso": "100",
      "shutter_speed": "1/40",
      "aperture": "22",
      "times_viewed": 3351,
      "rating": 99.4,
      "status": 1,
      "created_at": "2016-03-18T21:06:59-04:00",
      "category": 13,
      "location": null,
      "latitude": null,
      "longitude": null,
      "taken_at": "2016-02-12T14:15:21-05:00",
      "hi_res_uploaded": 0,
      "for_sale": false,
      "width": 8142,
      "height": 6195,
      "votes_count": 628,
      "favorites_count": 0,
      "comments_count": 20,
      "nsfw": false,
      "sales_count": 0,
      "for_sale_date": null,
      "highest_rating": 99.4,
      "highest_rating_date": "2016-03-19T17:45:57-04:00",
      "license_type": 0,
      "converted": 27,
      "collections_count": 39,
      "crop_version": 2,
      "privacy": false,
      "profile": true,
      "image_url": "https://drscdn.500px.org/photo/145090263/q%3D50_w%3D140_h%3D140/98b9b3d1a8ed3dbd034daeb4fd17a657?v=2",
      "images": [
        {
          "size": 2,
          "url": "https://drscdn.500px.org/photo/145090263/q%3D50_w%3D140_h%3D140/98b9b3d1a8ed3dbd034daeb4fd17a657?v=2",
          "https_url": "https://drscdn.500px.org/photo/145090263/q%3D50_w%3D140_h%3D140/98b9b3d1a8ed3dbd034daeb4fd17a657?v=2",
          "format": "jpeg"
        }
      ],
      "url": "/photo/145090263/allah-power-from-our-30-day-family-trip-by-trey-ratcliff",
      "positive_votes_count": 628,
      "converted_bits": 27,
      "watermark": false,
      "image_format": "jpeg",
      "user": {
        "id": 69708,
        "username": "TreyRatcliff",
        "firstname": "Trey",
        "lastname": "Ratcliff",
        "city": "Queenstown",
        "country": "New Zealand",
        "usertype": 0,
        "fullname": "Trey Ratcliff",
        "userpic_url": "https://pacdn.500px.org/69708/ccf654ddd2910bb85ab96bbfa9ff29bec617dc3b/1.jpg?1",
        "userpic_https_url": "https://pacdn.500px.org/69708/ccf654ddd2910bb85ab96bbfa9ff29bec617dc3b/1.jpg?1",
        "cover_url": "https://pacdn.500px.org/69708/ccf654ddd2910bb85ab96bbfa9ff29bec617dc3b/cover_2048.jpg?9",
        "upgrade_status": 0,
        "store_on": false,
        "affection": 39241,
        "avatars": {
          "default": {
            "https": "https://pacdn.500px.org/69708/ccf654ddd2910bb85ab96bbfa9ff29bec617dc3b/1.jpg?1"
          },
          "large": {
            "https": "https://pacdn.500px.org/69708/ccf654ddd2910bb85ab96bbfa9ff29bec617dc3b/2.jpg?1"
          },
          "small": {
            "https": "https://pacdn.500px.org/69708/ccf654ddd2910bb85ab96bbfa9ff29bec617dc3b/3.jpg?1"
          },
          "tiny": {
            "https": "https://pacdn.500px.org/69708/ccf654ddd2910bb85ab96bbfa9ff29bec617dc3b/4.jpg?1"
          }
        },
        "followers_count": 0
      },
      "licensing_requested": false
    },
    {
      "id": 145081791,
      "user_id": 264684,
      "name": "BATTLE OF THE LOG part#1",
      "description": "My images are always real....\n\nhttp://www.christopher-schlaf.com/",
      "camera": "Canon EOS-1D Mark III",
      "lens": "EF600mm f/4L IS USM",
      "focal_length": "600",
      "iso": "500",
      "shutter_speed": "1/3200",
      "aperture": "4",
      "times_viewed": 4050,
      "rating": 99.4,
      "status": 1,
      "created_at": "2016-03-18T19:38:21-04:00",
      "category": 11,
      "location": null,
      "latitude": 44.3148443,
      "longitude": -85.6023643,
      "taken_at": "2009-09-18T08:49:45-04:00",
      "hi_res_uploaded": 0,
      "for_sale": false,
      "width": 1500,
      "height": 881,
      "votes_count": 816,
      "favorites_count": 0,
      "comments_count": 44,
      "nsfw": false,
      "sales_count": 0,
      "for_sale_date": null,
      "highest_rating": 99.4,
      "highest_rating_date": "2016-03-19T17:26:19-04:00",
      "license_type": 0,
      "converted": 27,
      "collections_count": 60,
      "crop_version": 3,
      "privacy": false,
      "profile": true,
      "image_url": "https://drscdn.500px.org/photo/145081791/q%3D50_w%3D140_h%3D140/30530867038c8132dea7bffebb4730db?v=3",
      "images": [
        {
          "size": 2,
          "url": "https://drscdn.500px.org/photo/145081791/q%3D50_w%3D140_h%3D140/30530867038c8132dea7bffebb4730db?v=3",
          "https_url": "https://drscdn.500px.org/photo/145081791/q%3D50_w%3D140_h%3D140/30530867038c8132dea7bffebb4730db?v=3",
          "format": "jpeg"
        }
      ],
      "url": "/photo/145081791/battle-of-the-log-part-1-by-christopher-schlaf",
      "positive_votes_count": 816,
      "converted_bits": 27,
      "watermark": false,
      "image_format": "jpeg",
      "user": {
        "id": 264684,
        "username": "Christopher-Schlaf",
        "firstname": "CHRISTOPHER",
        "lastname": "SCHLAF",
        "city": "",
        "country": "USA",
        "usertype": 0,
        "fullname": "CHRISTOPHER SCHLAF",
        "userpic_url": "https://pacdn.500px.org/264684/8194567e31dcece8beaa5af71507bf6627ce2ca8/1.jpg?2",
        "userpic_https_url": "https://pacdn.500px.org/264684/8194567e31dcece8beaa5af71507bf6627ce2ca8/1.jpg?2",
        "cover_url": "https://pacdn.500px.org/264684/8194567e31dcece8beaa5af71507bf6627ce2ca8/cover_2048.jpg?6",
        "upgrade_status": 0,
        "store_on": true,
        "affection": 157122,
        "avatars": {
          "default": {
            "https": "https://pacdn.500px.org/264684/8194567e31dcece8beaa5af71507bf6627ce2ca8/1.jpg?2"
          },
          "large": {
            "https": "https://pacdn.500px.org/264684/8194567e31dcece8beaa5af71507bf6627ce2ca8/2.jpg?2"
          },
          "small": {
            "https": "https://pacdn.500px.org/264684/8194567e31dcece8beaa5af71507bf6627ce2ca8/3.jpg?2"
          },
          "tiny": {
            "https": "https://pacdn.500px.org/264684/8194567e31dcece8beaa5af71507bf6627ce2ca8/4.jpg?2"
          }
        },
        "followers_count": 0
      },
      "licensing_requested": false
    },
    {
      "id": 145075353,
      "user_id": 6064290,
      "name": "Like Water,,,",
      "description": "Natural light, no action or presets. \nSkype one on one  lessons\nFACEBOOK   \nINSTAGRAM",
      "camera": null,
      "lens": null,
      "focal_length": null,
      "iso": null,
      "shutter_speed": null,
      "aperture": null,
      "times_viewed": 5673,
      "rating": 99.4,
      "status": 1,
      "created_at": "2016-03-18T18:35:45-04:00",
      "category": 7,
      "location": null,
      "latitude": 38.65817,
      "longitude": -77.2497,
      "taken_at": null,
      "hi_res_uploaded": 0,
      "for_sale": false,
      "width": 2239,
      "height": 3204,
      "votes_count": 856,
      "favorites_count": 0,
      "comments_count": 61,
      "nsfw": false,
      "sales_count": 0,
      "for_sale_date": null,
      "highest_rating": 99.4,
      "highest_rating_date": "2016-03-19T16:36:02-04:00",
      "license_type": 0,
      "converted": 27,
      "collections_count": 67,
      "crop_version": 5,
      "privacy": false,
      "profile": true,
      "image_url": "https://drscdn.500px.org/photo/145075353/q%3D50_w%3D140_h%3D140/5232e6e1d71a9a6d7110917f46a7a2f9?v=5",
      "images": [
        {
          "size": 2,
          "url": "https://drscdn.500px.org/photo/145075353/q%3D50_w%3D140_h%3D140/5232e6e1d71a9a6d7110917f46a7a2f9?v=5",
          "https_url": "https://drscdn.500px.org/photo/145075353/q%3D50_w%3D140_h%3D140/5232e6e1d71a9a6d7110917f46a7a2f9?v=5",
          "format": "jpeg"
        }
      ],
      "url": "/photo/145075353/like-water-by-lilia-alvarado",
      "positive_votes_count": 856,
      "converted_bits": 27,
      "watermark": false,
      "image_format": "jpeg",
      "user": {
        "id": 6064290,
        "username": "LiliaAlvarado",
        "firstname": "Lilia",
        "lastname": "Alvarado",
        "city": "Woodbridge",
        "country": "USA",
        "usertype": 0,
        "fullname": "Lilia Alvarado",
        "userpic_url": "https://pacdn.500px.org/6064290/2ba1f7c11b27ca906ed6c8a2da526096e12399e8/1.jpg?2",
        "userpic_https_url": "https://pacdn.500px.org/6064290/2ba1f7c11b27ca906ed6c8a2da526096e12399e8/1.jpg?2",
        "cover_url": "https://pacdn.500px.org/6064290/2ba1f7c11b27ca906ed6c8a2da526096e12399e8/cover_2048.jpg?12",
        "upgrade_status": 0,
        "store_on": true,
        "affection": 122871,
        "avatars": {
          "default": {
            "https": "https://pacdn.500px.org/6064290/2ba1f7c11b27ca906ed6c8a2da526096e12399e8/1.jpg?2"
          },
          "large": {
            "https": "https://pacdn.500px.org/6064290/2ba1f7c11b27ca906ed6c8a2da526096e12399e8/2.jpg?2"
          },
          "small": {
            "https": "https://pacdn.500px.org/6064290/2ba1f7c11b27ca906ed6c8a2da526096e12399e8/3.jpg?2"
          },
          "tiny": {
            "https": "https://pacdn.500px.org/6064290/2ba1f7c11b27ca906ed6c8a2da526096e12399e8/4.jpg?2"
          }
        },
        "followers_count": 0
      },
      "licensing_requested": false
    },
    {
      "id": 145166009,
      "user_id": 2802247,
      "name": "Cherry Blossom Love",
      "description": null,
      "camera": "Canon EOS-1D X",
      "lens": "EF300mm f/2.8L IS USM +2x III",
      "focal_length": "600",
      "iso": "500",
      "shutter_speed": "1/250",
      "aperture": "6.3",
      "times_viewed": 2987,
      "rating": 99.3,
      "status": 1,
      "created_at": "2016-03-19T12:04:17-04:00",
      "category": 11,
      "location": null,
      "latitude": 24.9414250839918,
      "longitude": 121.721511832438,
      "taken_at": "2016-03-08T15:04:03-05:00",
      "hi_res_uploaded": 0,
      "for_sale": false,
      "width": 5184,
      "height": 3456,
      "votes_count": 667,
      "favorites_count": 0,
      "comments_count": 51,
      "nsfw": false,
      "sales_count": 0,
      "for_sale_date": null,
      "highest_rating": 99.3,
      "highest_rating_date": "2016-03-19T18:05:47-04:00",
      "license_type": 0,
      "converted": 31,
      "collections_count": 63,
      "crop_version": 8,
      "privacy": false,
      "profile": true,
      "image_url": "https://drscdn.500px.org/photo/145166009/q%3D50_w%3D140_h%3D140/497243d193c1ce1deb36cfdcfacaaf79?v=8",
      "images": [
        {
          "size": 2,
          "url": "https://drscdn.500px.org/photo/145166009/q%3D50_w%3D140_h%3D140/497243d193c1ce1deb36cfdcfacaaf79?v=8",
          "https_url": "https://drscdn.500px.org/photo/145166009/q%3D50_w%3D140_h%3D140/497243d193c1ce1deb36cfdcfacaaf79?v=8",
          "format": "jpeg"
        }
      ],
      "url": "/photo/145166009/cherry-blossom-love-by-sue-hsu",
      "positive_votes_count": 667,
      "converted_bits": 31,
      "watermark": true,
      "image_format": "jpeg",
      "user": {
        "id": 2802247,
        "username": "littletree131",
        "firstname": "Sue",
        "lastname": "Hsu",
        "city": "Taipei",
        "country": "Taiwan",
        "usertype": 0,
        "fullname": "Sue Hsu",
        "userpic_url": "https://pacdn.500px.org/2802247/80b3ad10090a7c825b6217cb53212e4995ce264f/1.jpg?3",
        "userpic_https_url": "https://pacdn.500px.org/2802247/80b3ad10090a7c825b6217cb53212e4995ce264f/1.jpg?3",
        "cover_url": "https://pacdn.500px.org/2802247/80b3ad10090a7c825b6217cb53212e4995ce264f/cover_2048.jpg?116",
        "upgrade_status": 2,
        "store_on": true,
        "affection": 234225,
        "avatars": {
          "default": {
            "https": "https://pacdn.500px.org/2802247/80b3ad10090a7c825b6217cb53212e4995ce264f/1.jpg?3"
          },
          "large": {
            "https": "https://pacdn.500px.org/2802247/80b3ad10090a7c825b6217cb53212e4995ce264f/2.jpg?3"
          },
          "small": {
            "https": "https://pacdn.500px.org/2802247/80b3ad10090a7c825b6217cb53212e4995ce264f/3.jpg?3"
          },
          "tiny": {
            "https": "https://pacdn.500px.org/2802247/80b3ad10090a7c825b6217cb53212e4995ce264f/4.jpg?3"
          }
        },
        "followers_count": 0
      },
      "licensing_requested": false
    },
    {
      "id": 145156851,
      "user_id": 41004,
      "name": "the wait is over",
      "description": null,
      "camera": "Canon EOS-1D X",
      "lens": null,
      "focal_length": "85",
      "iso": "50",
      "shutter_speed": "1/400",
      "aperture": "1.2",
      "times_viewed": 2914,
      "rating": 99.3,
      "status": 1,
      "created_at": "2016-03-19T10:51:35-04:00",
      "category": 7,
      "location": null,
      "latitude": null,
      "longitude": null,
      "taken_at": "2016-02-13T14:42:51-05:00",
      "hi_res_uploaded": 0,
      "for_sale": false,
      "width": 1200,
      "height": 1201,
      "votes_count": 581,
      "favorites_count": 0,
      "comments_count": 16,
      "nsfw": false,
      "sales_count": 0,
      "for_sale_date": null,
      "highest_rating": 99.3,
      "highest_rating_date": "2016-03-19T18:04:58-04:00",
      "license_type": 0,
      "converted": 27,
      "collections_count": 77,
      "crop_version": 3,
      "privacy": false,
      "profile": true,
      "image_url": "https://drscdn.500px.org/photo/145156851/q%3D50_w%3D140_h%3D140/7ccfd749163f3411ef33ea461f41f773?v=3",
      "images": [
        {
          "size": 2,
          "url": "https://drscdn.500px.org/photo/145156851/q%3D50_w%3D140_h%3D140/7ccfd749163f3411ef33ea461f41f773?v=3",
          "https_url": "https://drscdn.500px.org/photo/145156851/q%3D50_w%3D140_h%3D140/7ccfd749163f3411ef33ea461f41f773?v=3",
          "format": "jpeg"
        }
      ],
      "url": "/photo/145156851/the-wait-is-over-by-stefan-beutler",
      "positive_votes_count": 581,
      "converted_bits": 27,
      "watermark": false,
      "image_format": "jpeg",
      "user": {
        "id": 41004,
        "username": "Stefan_Beutler",
        "firstname": "Stefan",
        "lastname": "Beutler",
        "city": "",
        "country": "Germany",
        "usertype": 0,
        "fullname": "Stefan Beutler",
        "userpic_url": "https://pacdn.500px.org/41004/546d23ba85a7cc77daaa90f4d2b5645f9d7b6dff/1.jpg?1",
        "userpic_https_url": "https://pacdn.500px.org/41004/546d23ba85a7cc77daaa90f4d2b5645f9d7b6dff/1.jpg?1",
        "cover_url": "https://pacdn.500px.org/41004/546d23ba85a7cc77daaa90f4d2b5645f9d7b6dff/cover_2048.jpg?10",
        "upgrade_status": 0,
        "store_on": false,
        "affection": 206873,
        "avatars": {
          "default": {
            "https": "https://pacdn.500px.org/41004/546d23ba85a7cc77daaa90f4d2b5645f9d7b6dff/1.jpg?1"
          },
          "large": {
            "https": "https://pacdn.500px.org/41004/546d23ba85a7cc77daaa90f4d2b5645f9d7b6dff/2.jpg?1"
          },
          "small": {
            "https": "https://pacdn.500px.org/41004/546d23ba85a7cc77daaa90f4d2b5645f9d7b6dff/3.jpg?1"
          },
          "tiny": {
            "https": "https://pacdn.500px.org/41004/546d23ba85a7cc77daaa90f4d2b5645f9d7b6dff/4.jpg?1"
          }
        },
        "followers_count": 0
      },
      "licensing_requested": false
    },
    {
      "id": 145144705,
      "user_id": 2769123,
      "name": "Kyoto's Arashiyama forest",
      "description": null,
      "camera": "NIKON D750",
      "lens": "14.0-24.0 mm f/2.8",
      "focal_length": "22",
      "iso": "100",
      "shutter_speed": "1/15",
      "aperture": "2.8",
      "times_viewed": 4142,
      "rating": 99.3,
      "status": 1,
      "created_at": "2016-03-19T09:10:32-04:00",
      "category": 13,
      "location": null,
      "latitude": null,
      "longitude": null,
      "taken_at": "2015-12-31T03:11:11-05:00",
      "hi_res_uploaded": 0,
      "for_sale": false,
      "width": 6016,
      "height": 4016,
      "votes_count": 713,
      "favorites_count": 0,
      "comments_count": 135,
      "nsfw": false,
      "sales_count": 0,
      "for_sale_date": null,
      "highest_rating": 99.3,
      "highest_rating_date": "2016-03-19T18:19:10-04:00",
      "license_type": 0,
      "converted": 27,
      "collections_count": 38,
      "crop_version": 2,
      "privacy": false,
      "profile": true,
      "image_url": "https://drscdn.500px.org/photo/145144705/q%3D50_w%3D140_h%3D140/34a939d7beed594df9e877bf5c562428?v=2",
      "images": [
        {
          "size": 2,
          "url": "https://drscdn.500px.org/photo/145144705/q%3D50_w%3D140_h%3D140/34a939d7beed594df9e877bf5c562428?v=2",
          "https_url": "https://drscdn.500px.org/photo/145144705/q%3D50_w%3D140_h%3D140/34a939d7beed594df9e877bf5c562428?v=2",
          "format": "jpeg"
        }
      ],
      "url": "/photo/145144705/kyoto-s-arashiyama-forest-by-carmine-chiriac%C3%B2",
      "positive_votes_count": 713,
      "converted_bits": 27,
      "watermark": false,
      "image_format": "jpeg",
      "user": {
        "id": 2769123,
        "username": "Mine_Kar",
        "firstname": "Carmine",
        "lastname": "Chiriacò",
        "city": "Roma",
        "country": "Italia",
        "usertype": 0,
        "fullname": "Carmine Chiriacò",
        "userpic_url": "https://pacdn.500px.org/2769123/d2099aa494eb07c32d704719ca5a8b2cfecdfdc4/1.jpg?2",
        "userpic_https_url": "https://pacdn.500px.org/2769123/d2099aa494eb07c32d704719ca5a8b2cfecdfdc4/1.jpg?2",
        "cover_url": "https://pacdn.500px.org/2769123/d2099aa494eb07c32d704719ca5a8b2cfecdfdc4/cover_2048.jpg?2",
        "upgrade_status": 0,
        "store_on": true,
        "affection": 161078,
        "avatars": {
          "default": {
            "https": "https://pacdn.500px.org/2769123/d2099aa494eb07c32d704719ca5a8b2cfecdfdc4/1.jpg?2"
          },
          "large": {
            "https": "https://pacdn.500px.org/2769123/d2099aa494eb07c32d704719ca5a8b2cfecdfdc4/2.jpg?2"
          },
          "small": {
            "https": "https://pacdn.500px.org/2769123/d2099aa494eb07c32d704719ca5a8b2cfecdfdc4/3.jpg?2"
          },
          "tiny": {
            "https": "https://pacdn.500px.org/2769123/d2099aa494eb07c32d704719ca5a8b2cfecdfdc4/4.jpg?2"
          }
        },
        "followers_count": 0
      },
      "licensing_requested": false
    },
    {
      "id": 145122081,
      "user_id": 11998975,
      "name": "Sweet April",
      "description": "<a href=\"http://www.diciccophotography.com/shoponline/\">Created using my actions CLICK HERE</a>\n\n<a href=\"https://www.facebook.com/alessandro.dicicco.9\">FACEBOOK</a>  |  <a href=\"http://www.diciccophotography.com/\">WEBSITE</a>  |  <a href=\"https://instagram.com/alediciccofoto\">INSTAGRAM</a>  |  <a href=\"https://500px.com/Aledicicco\">500px</a>\n\nVIDEOS OF MY EDITING AVAILABLE.\ncontact me on facebook or email: diciccophotography@hotmail.com\nwww.diciccophotography.com",
      "camera": "Canon EOS 5D Mark III",
      "lens": "EF85mm f/1.2L USM",
      "focal_length": "85",
      "iso": "200",
      "shutter_speed": "1/500",
      "aperture": "1.8",
      "times_viewed": 5009,
      "rating": 99.3,
      "status": 1,
      "created_at": "2016-03-19T05:33:17-04:00",
      "category": 7,
      "location": null,
      "latitude": null,
      "longitude": null,
      "taken_at": "2016-01-10T12:14:56-05:00",
      "hi_res_uploaded": 0,
      "for_sale": false,
      "width": 5022,
      "height": 3348,
      "votes_count": 1018,
      "favorites_count": 0,
      "comments_count": 22,
      "nsfw": false,
      "sales_count": 0,
      "for_sale_date": null,
      "highest_rating": 99.3,
      "highest_rating_date": "2016-03-19T17:18:26-04:00",
      "license_type": 0,
      "converted": 27,
      "collections_count": 120,
      "crop_version": 3,
      "privacy": false,
      "profile": true,
      "image_url": "https://drscdn.500px.org/photo/145122081/q%3D50_w%3D140_h%3D140/1e1756de2a3325fb9467777f419b6c9f?v=3",
      "images": [
        {
          "size": 2,
          "url": "https://drscdn.500px.org/photo/145122081/q%3D50_w%3D140_h%3D140/1e1756de2a3325fb9467777f419b6c9f?v=3",
          "https_url": "https://drscdn.500px.org/photo/145122081/q%3D50_w%3D140_h%3D140/1e1756de2a3325fb9467777f419b6c9f?v=3",
          "format": "jpeg"
        }
      ],
      "url": "/photo/145122081/sweet-april-by-alessandro-di-cicco",
      "positive_votes_count": 1018,
      "converted_bits": 27,
      "watermark": false,
      "image_format": "jpeg",
      "user": {
        "id": 11998975,
        "username": "Aledicicco",
        "firstname": "Alessandro",
        "lastname": "Di Cicco",
        "city": "CASTELFORTE",
        "country": "Italia",
        "usertype": 0,
        "fullname": "Alessandro Di Cicco",
        "userpic_url": "https://pacdn.500px.org/11998975/5118ac3e57f6da351fb8eb45e278cc9a786f82d9/1.jpg?2",
        "userpic_https_url": "https://pacdn.500px.org/11998975/5118ac3e57f6da351fb8eb45e278cc9a786f82d9/1.jpg?2",
        "cover_url": "https://pacdn.500px.org/11998975/5118ac3e57f6da351fb8eb45e278cc9a786f82d9/cover_2048.jpg?47",
        "upgrade_status": 0,
        "store_on": true,
        "affection": 372742,
        "avatars": {
          "default": {
            "https": "https://pacdn.500px.org/11998975/5118ac3e57f6da351fb8eb45e278cc9a786f82d9/1.jpg?2"
          },
          "large": {
            "https": "https://pacdn.500px.org/11998975/5118ac3e57f6da351fb8eb45e278cc9a786f82d9/2.jpg?2"
          },
          "small": {
            "https": "https://pacdn.500px.org/11998975/5118ac3e57f6da351fb8eb45e278cc9a786f82d9/3.jpg?2"
          },
          "tiny": {
            "https": "https://pacdn.500px.org/11998975/5118ac3e57f6da351fb8eb45e278cc9a786f82d9/4.jpg?2"
          }
        },
        "followers_count": 0
      },
      "licensing_requested": false
    }
  ],
  "filters": {
    "category": false,
    "exclude": false
  },
  "feature": "popular"
}